%YAML 1.1
%TAG !u! tag:unity3d.com,2011:
--- !u!21 &2100000
Material:
  serializedVersion: 6
  m_ObjectHideFlags: 0
  m_PrefabParentObject: {fileID: 0}
  m_PrefabInternal: {fileID: 0}
  m_Name: DAX88_ref
  m_Shader: {fileID: 46, guid: 0000000000000000f000000000000000, type: 0}
  m_ShaderKeywords: _ALPHABLEND_ON _EMISSION _GLOSSYREFLECTIONS_OFF _SPECULARHIGHLIGHTS_OFF
  m_LightmapFlags: 1
  m_CustomRenderQueue: 3000
  stringTagMap:
    RenderType: Transparent
  m_SavedProperties:
    serializedVersion: 2
    m_TexEnvs:
    - first:
        name: _BumpMap
      second:
        m_Texture: {fileID: 0}
        m_Scale: {x: 1, y: 1}
        m_Offset: {x: 0, y: 0}
    - first:
        name: _BumpTex
      second:
        m_Texture: {fileID: 0}
        m_Scale: {x: 1, y: 1}
        m_Offset: {x: 0, y: 0}
    - first:
        name: _CombineTex
      second:
        m_Texture: {fileID: 2800000, guid: 92b0a732ad112a541100162a44295342, type: 3}
        m_Scale: {x: 1, y: 1}
        m_Offset: {x: 0, y: 0}
    - first:
        name: _DetailAlbedoMap
      second:
        m_Texture: {fileID: 0}
        m_Scale: {x: 1, y: 1}
        m_Offset: {x: 0, y: 0}
    - first:
        name: _DetailMask
      second:
        m_Texture: {fileID: 0}
        m_Scale: {x: 1, y: 1}
        m_Offset: {x: 0, y: 0}
    - first:
        name: _DetailNormalMap
      second:
        m_Texture: {fileID: 0}
        m_Scale: {x: 1, y: 1}
        m_Offset: {x: 0, y: 0}
    - first:
        name: _EmissionMap
      second:
        m_Texture: {fileID: 0}
        m_Scale: {x: 1, y: 1}
        m_Offset: {x: 0, y: 0}
    - first:
        name: _FalloffTex
      second:
        m_Texture: {fileID: 2800000, guid: 23740055e2b119e40a939138ab8070f8, type: 3}
        m_Scale: {x: 1, y: 1}
        m_Offset: {x: 0, y: 0}
    - first:
        name: _HiliteTex
      second:
        m_Texture: {fileID: 2800000, guid: f7a0a732ad112a541100162a44295342, type: 3}
        m_Scale: {x: 1, y: 1}
        m_Offset: {x: 0, y: 0}
    - first:
        name: _MainTex
      second:
        m_Texture: {fileID: 2800000, guid: 4d793542bc45c824da50a68559efaf9d, type: 3}
        m_Scale: {x: 1, y: 1}
        m_Offset: {x: 0, y: 0}
    - first:
        name: _MetallicGlossMap
      second:
        m_Texture: {fileID: 0}
        m_Scale: {x: 1, y: 1}
        m_Offset: {x: 0, y: 0}
    - first:
        name: _OcclusionMap
      second:
        m_Texture: {fileID: 0}
        m_Scale: {x: 1, y: 1}
        m_Offset: {x: 0, y: 0}
    - first:
        name: _ParallaxMap
      second:
        m_Texture: {fileID: 0}
        m_Scale: {x: 1, y: 1}
        m_Offset: {x: 0, y: 0}
    - first:
        name: _ShadowTex
      second:
        m_Texture: {fileID: 2800000, guid: ce8b4ee3f8f13624bb7e7a8ff03b8e7a, type: 3}
        m_Scale: {x: 1, y: 1}
        m_Offset: {x: 0, y: 0}
    m_Floats:
    - first:
        name: _BumpScale
      second: 1
    - first:
        name: _Cutoff
      second: 0.5
    - first:
        name: _DetailNormalMapScale
      second: 1
    - first:
        name: _DstBlend
      second: 10
    - first:
        name: _GlossMapScale
      second: 1
    - first:
        name: _Glossiness
      second: 0
    - first:
        name: _GlossyReflections
      second: 0
    - first:
        name: _Metallic
      second: 0
    - first:
        name: _Mode
      second: 2
    - first:
        name: _OcclusionStrength
      second: 1
    - first:
        name: _Parallax
      second: 0.02
    - first:
        name: _SmoothnessTextureChannel
      second: 0
    - first:
        name: _SpecularHighlights
      second: 0
    - first:
        name: _SrcBlend
      second: 5
    - first:
        name: _UVSec
      second: 0
    - first:
        name: _ZWrite
      second: 0
    m_Colors:
    - first:
        name: BumpMapScale
      second: {r: 1, g: 1, b: 1, a: 1}
    - first:
        name: _Color
      second: {r: 0, g: 0, b: 0, a: 0.922}
    - first:
        name: _EmissionColor
      second: {r: 0, g: 0, b: 0, a: 1}
    - first:
        name: _ProjectorClip_0
      second: {r: -0.015438232, g: -0.025866693, b: 0.14460614, a: 0.29360974}
    - first:
        name: _ProjectorClip_1
      second: {r: 0.0047582523, g: 0.14523815, b: 0.026487738, a: 0.0030641258}
    - first:
        name: _ProjectorClip_2
      second: {r: -0.015438232, g: -0.025866693, b: 0.14460614, a: 0.29360974}
    - first:
        name: _ProjectorClip_3
      second: {r: 0, g: 0, b: 0, a: 1}
    - first:
        name: _ProjectorDistance_0
      second: {r: -0.015213515, g: -0.02549018, b: 0.14250126, a: 0.30389196}
    - first:
        name: _ProjectorDistance_1
      second: {r: 0.0046889912, g: 0.14312407, b: 0.026102185, a: 0.017575443}
    - first:
        name: _ProjectorDistance_2
      second: {r: -0.015213515, g: -0.02549018, b: 0.14250126, a: 0.30389196}
    - first:
        name: _ProjectorDistance_3
      second: {r: 0, g: 0, b: 0, a: 1}
    - first:
        name: _Projector_0
      second: {r: 1.6710045, g: -0.17472492, b: 0.6578766, a: 1.0662117}
    - first:
        name: _Projector_1
      second: {r: -0.0014375485, g: 1.4636691, b: 0.77239656, a: 1.2343576}
    - first:
        name: _Projector_2
      second: {r: -0.107604526, g: -0.18029094, b: 1.0079052, a: 1.9464619}
    - first:
        name: _Projector_3
      second: {r: -0.10451689, g: -0.17511761, b: 0.9789842, a: 2.0877385}
    - first:
        name: _TintColor
      second: {r: 0.5, g: 0.5, b: 0.5, a: 0.5}
--- !u!1002 &2100001
EditorExtensionImpl:
  serializedVersion: 6
